電工實驗/eelab3/w5/simulation/qsim/week5.msim.vcd
$comment
	File created using the following command:
		vcd file week5.msim.vcd -direction
$end
$date
	Wed Dec 06 03:40:45 2023
$end
$version
	ModelSim Version 2020.1
$end
$timescale
	1ps
$end

$scope module dff8_vlg_vec_tst $end
$var reg 1 ! clk $end
$var reg 8 " data [7:0] $end
$var wire 1 # Q [7] $end
$var wire 1 $ Q [6] $end
$var wire 1 % Q [5] $end
$var wire 1 & Q [4] $end
$var wire 1 ' Q [3] $end
$var wire 1 ( Q [2] $end
$var wire 1 ) Q [1] $end
$var wire 1 * Q [0] $end

$scope module i1 $end
$var wire 1 + gnd $end
$var wire 1 , vcc $end
$var wire 1 - unknown $end
$var tri1 1 . devclrn $end
$var tri1 1 / devpor $end
$var tri1 1 0 devoe $end
$var wire 1 1 ~QUARTUS_CREATED_GND~I_combout $end
$var wire 1 2 clk~input_o $end
$var wire 1 3 clk~inputCLKENA0_outclk $end
$var wire 1 4 data[0]~input_o $end
$var wire 1 5 Q[0]~reg0_q $end
$var wire 1 6 data[1]~input_o $end
$var wire 1 7 Q[1]~reg0feeder_combout $end
$var wire 1 8 Q[1]~reg0_q $end
$var wire 1 9 data[2]~input_o $end
$var wire 1 : Q[2]~reg0feeder_combout $end
$var wire 1 ; Q[2]~reg0_q $end
$var wire 1 < data[3]~input_o $end
$var wire 1 = Q[3]~reg0feeder_combout $end
$var wire 1 > Q[3]~reg0_q $end
$var wire 1 ? data[4]~input_o $end
$var wire 1 @ Q[4]~reg0feeder_combout $end
$var wire 1 A Q[4]~reg0_q $end
$var wire 1 B data[5]~input_o $end
$var wire 1 C Q[5]~reg0feeder_combout $end
$var wire 1 D Q[5]~reg0_q $end
$var wire 1 E data[6]~input_o $end
$var wire 1 F Q[6]~reg0_q $end
$var wire 1 G data[7]~input_o $end
$var wire 1 H Q[7]~reg0feeder_combout $end
$var wire 1 I Q[7]~reg0_q $end
$upscope $end
$upscope $end
$enddefinitions $end
#0
$dumpvars
0!
b0 "
0*
0)
0(
0'
0&
0%
0$
0#
0+
1,
x-
1.
1/
10
01
02
03
04
05
06
07
08
09
0:
0;
0<
0=
0>
0?
0@
0A
0B
0C
0D
0E
0F
0G
0H
0I
$end
#5000
1!
12
13
#10000
0!
02
03
#15000
1!
12
13
#20000
0!
02
03
#25000
1!
12
13
#30000
0!
02
03
#35000
1!
12
13
#40000
0!
02
03
#45000
1!
12
13
#50000
0!
02
03
#55000
1!
12
13
#60000
0!
02
03
#65000
1!
12
13
#70000
0!
02
03
#75000
1!
12
13
#80000
0!
02
03
#85000
1!
12
13
#90000
0!
02
03
#95000
1!
12
13
#100000
0!
02
03
#105000
1!
12
13
#110000
0!
02
03
#115000
1!
12
13
#120000
b1000000 "
b1100000 "
0!
1B
1E
02
03
1C
#125000
1!
12
13
1F
1D
1%
1$
#130000
0!
02
03
#135000
1!
12
13
#140000
0!
02
03
#145000
1!
12
13
#150000
0!
02
03
#155000
1!
12
13
#160000
0!
02
03
#165000
1!
12
13
#170000
0!
02
03
#175000
1!
12
13
#180000
0!
02
03
#185000
1!
12
13
#190000
0!
02
03
#195000
1!
12
13
#200000
0!
02
03
#205000
1!
12
13
#210000
0!
02
03
#215000
1!
12
13
#220000
0!
02
03
#225000
1!
12
13
#230000
0!
02
03
#235000
1!
12
13
#240000
b1100010 "
b100010 "
b10 "
0!
16
0B
0E
02
03
0C
17
#245000
1!
12
13
0F
0D
18
1)
0%
0$
#250000
0!
02
03
#255000
1!
12
13
#260000
0!
02
03
#265000
1!
12
13
#270000
0!
02
03
#275000
1!
12
13
#280000
0!
02
03
#285000
1!
12
13
#290000
0!
02
03
#295000
1!
12
13
#300000
0!
02
03
#305000
1!
12
13
#310000
0!
02
03
#315000
1!
12
13
#320000
0!
02
03
#325000
1!
12
13
#330000
0!
02
03
#335000
1!
12
13
#340000
0!
02
03
#345000
1!
12
13
#350000
0!
02
03
#355000
1!
12
13
#360000
0!
02
03
#365000
1!
12
13
#370000
0!
02
03
#375000
1!
12
13
#380000
0!
02
03
#385000
1!
12
13
#390000
b110 "
b100110 "
0!
19
1B
02
03
1C
1:
#395000
1!
12
13
1D
1;
1(
1%
#400000
0!
02
03
#405000
1!
12
13
#410000
0!
02
03
#415000
1!
12
13
#420000
0!
02
03
#425000
1!
12
13
#430000
0!
02
03
#435000
1!
12
13
#440000
0!
02
03
#445000
1!
12
13
#450000
0!
02
03
#455000
1!
12
13
#460000
0!
02
03
#465000
1!
12
13
#470000
0!
02
03
#475000
1!
12
13
#480000
0!
02
03
#485000
1!
12
13
#490000
0!
02
03
#495000
1!
12
13
#500000
0!
02
03
#505000
1!
12
13
#510000
0!
02
03
#515000
1!
12
13
#520000
0!
02
03
#525000
1!
12
13
#530000
0!
02
03
#535000
1!
12
13
#540000
b110110 "
b110100 "
b110000 "
b10000 "
0!
06
09
1?
0B
02
03
0C
1@
0:
07
#545000
1!
12
13
0D
1A
0;
08
0)
0(
1&
0%
#550000
0!
02
03
#555000
1!
12
13
#560000
0!
02
03
#565000
1!
12
13
#570000
0!
02
03
#575000
1!
12
13
#580000
0!
02
03
#585000
1!
12
13
#590000
0!
02
03
#595000
1!
12
13
#600000
0!
02
03
#605000
1!
12
13
#610000
0!
02
03
#615000
1!
12
13
#620000
0!
02
03
#625000
1!
12
13
#630000
0!
02
03
#635000
1!
12
13
#640000
0!
02
03
#645000
1!
12
13
#650000
0!
02
03
#655000
1!
12
13
#660000
0!
02
03
#665000
1!
12
13
#670000
0!
02
03
#675000
1!
12
13
#680000
0!
02
03
#685000
1!
12
13
#690000
0!
02
03
#695000
1!
12
13
#700000
b1010000 "
b1010010 "
0!
16
1E
02
03
17
#705000
1!
12
13
1F
18
1)
1$
#710000
0!
02
03
#715000
1!
12
13
#720000
0!
02
03
#725000
1!
12
13
#730000
0!
02
03
#735000
1!
12
13
#740000
0!
02
03
#745000
1!
12
13
#750000
0!
02
03
#755000
1!
12
13
#760000
0!
02
03
#765000
1!
12
13
#770000
0!
02
03
#775000
1!
12
13
#780000
0!
02
03
#785000
1!
12
13
#790000
0!
02
03
#795000
1!
12
13
#800000
0!
02
03
#805000
1!
12
13
#810000
0!
02
03
#815000
1!
12
13
#820000
0!
02
03
#825000
1!
12
13
#830000
0!
02
03
#835000
1!
12
13
#840000
0!
02
03
#845000
1!
12
13
#850000
b1000010 "
b10 "
b0 "
0!
06
0?
0E
02
03
0@
07
#855000
1!
12
13
0F
0A
08
0)
0&
0$
#860000
0!
02
03
#865000
1!
12
13
#870000
0!
02
03
#875000
1!
12
13
#880000
0!
02
03
#885000
1!
12
13
#890000
0!
02
03
#895000
1!
12
13
#900000
0!
02
03
#905000
1!
12
13
#910000
0!
02
03
#915000
1!
12
13
#920000
0!
02
03
#925000
1!
12
13
#930000
0!
02
03
#935000
1!
12
13
#940000
0!
02
03
#945000
1!
12
13
#950000
0!
02
03
#955000
1!
12
13
#960000
0!
02
03
#965000
1!
12
13
#970000
0!
02
03
#975000
1!
12
13
#980000
0!
02
03
#985000
1!
12
13
#990000
0!
02
03
#995000
1!
12
13
