電工實驗/eelab3/ihatethis/simulation/qsim/week3.msim.vcd
$comment
	File created using the following command:
		vcd file week3.msim.vcd -direction
$end
$date
	Tue Oct 24 22:01:09 2023
$end
$version
	ModelSim Version 2020.1
$end
$timescale
	1ps
$end

$scope module SMCtrl_vlg_vec_tst $end
$var reg 1 ! clk $end
$var reg 1 " dir $end
$var reg 1 # reset $end
$var wire 1 $ SMC [3] $end
$var wire 1 % SMC [2] $end
$var wire 1 & SMC [1] $end
$var wire 1 ' SMC [0] $end

$scope module i1 $end
$var wire 1 ( gnd $end
$var wire 1 ) vcc $end
$var wire 1 * unknown $end
$var tri1 1 + devclrn $end
$var tri1 1 , devpor $end
$var tri1 1 - devoe $end
$var wire 1 . ~QUARTUS_CREATED_GND~I_combout $end
$var wire 1 / clk~input_o $end
$var wire 1 0 clk~inputCLKENA0_outclk $end
$var wire 1 1 reset~input_o $end
$var wire 1 2 dir~input_o $end
$var wire 1 3 cs.000~0_combout $end
$var wire 1 4 cs.000~q $end
$var wire 1 5 ns.010~0_combout $end
$var wire 1 6 cs.010~q $end
$var wire 1 7 ns.011~0_combout $end
$var wire 1 8 cs.011~q $end
$var wire 1 9 ns.100~0_combout $end
$var wire 1 : cs.100~q $end
$var wire 1 ; ns.001~0_combout $end
$var wire 1 < cs.001~q $end
$var wire 1 = SMC~0_combout $end
$var wire 1 > SMC~1_combout $end
$var wire 1 ? SMC~2_combout $end
$var wire 1 @ SMC~3_combout $end
$upscope $end
$upscope $end
$enddefinitions $end
#0
$dumpvars
0!
0"
1#
0'
0&
0%
0$
0(
1)
x*
1+
1,
1-
0.
0/
00
11
02
03
04
05
06
07
08
09
0:
0;
0<
0=
0>
0?
0@
$end
#15000
1!
1/
10
#30000
0!
0/
00
#45000
1!
1/
10
#60000
0!
0/
00
#75000
1!
1/
10
#90000
0!
0/
00
#105000
1!
1/
10
#120000
0!
0/
00
#135000
1!
1/
10
#150000
0#
0!
01
0/
00
1;
13
#165000
1!
1/
10
1<
14
0;
1@
1=
19
1'
1$
#180000
0!
0/
00
#195000
1!
1/
10
0<
1:
1?
17
0=
09
0'
1%
#210000
1"
0!
12
0/
00
1;
07
#225000
1!
1/
10
1<
0:
0?
0;
1=
15
1'
0%
#240000
0!
0/
00
#255000
1!
1/
10
0<
16
1>
17
0@
05
0$
1&
#270000
0!
0/
00
#285000
1!
1/
10
18
06
0=
07
1?
19
1%
0'
#300000
0!
0/
00
#310000
0"
02
09
15
#315000
1!
1/
10
08
16
1=
1;
0?
05
0%
1'
#330000
0!
0/
00
#345000
1!
1/
10
1<
06
0>
0;
1@
19
1$
0&
#360000
0!
0/
00
#375000
1!
1/
10
0<
1:
1?
17
0=
09
0'
1%
#390000
0!
0/
00
#405000
1!
1/
10
0:
18
1>
15
0@
07
0$
1&
#420000
0!
0/
00
#435000
1!
1/
10
08
16
1=
1;
0?
05
0%
1'
#450000
0!
0/
00
#460000
1#
11
0;
03
#465000
1!
1/
10
06
04
0>
0=
0'
0&
#480000
0!
0/
00
#495000
1!
1/
10
#510000
0!
0/
00
#520000
0#
01
1;
13
#525000
1!
1/
10
1<
14
0;
1@
1=
19
1'
1$
#540000
0!
0/
00
#555000
1!
1/
10
0<
1:
1?
17
0=
09
0'
1%
#560000
1"
12
1;
07
#570000
0!
0/
00
#585000
1!
1/
10
1<
0:
0?
0;
1=
15
1'
0%
#600000
0!
0/
00
#615000
1!
1/
10
0<
16
1>
17
0@
05
0$
1&
#630000
0!
0/
00
#645000
1!
1/
10
18
06
0=
07
1?
19
1%
0'
#660000
0!
0/
00
#675000
1!
1/
10
1:
08
0>
09
1@
1;
1$
0&
#690000
0!
0/
00
#705000
1!
1/
10
1<
0:
0?
0;
1=
15
1'
0%
#720000
0!
0/
00
#735000
1!
1/
10
0<
16
1>
17
0@
05
0$
1&
#750000
0!
0/
00
#765000
1!
1/
10
18
06
0=
07
1?
19
1%
0'
#780000
0!
0/
00
#795000
1!
1/
10
1:
08
0>
09
1@
1;
1$
0&
#810000
0"
0!
02
0/
00
0;
17
#825000
1!
1/
10
0:
18
1>
15
0@
07
0$
1&
#840000
0!
0/
00
#855000
1!
1/
10
08
16
1=
1;
0?
05
0%
1'
#870000
0!
0/
00
#885000
1!
1/
10
1<
06
0>
0;
1@
19
1$
0&
#900000
0!
0/
00
#915000
1!
1/
10
0<
1:
1?
17
0=
09
0'
1%
#930000
0!
0/
00
#945000
1!
1/
10
0:
18
1>
15
0@
07
0$
1&
#960000
0!
0/
00
#975000
1!
1/
10
08
16
1=
1;
0?
05
0%
1'
#990000
0!
0/
00
