電工實驗/eelab3/digitallab4/simulation/qsim/digitallab4.msim.vcd
$comment
	File created using the following command:
		vcd file digitallab4.msim.vcd -direction
$end
$date
	Mon Nov 20 21:33:03 2023
$end
$version
	ModelSim Version 2020.1
$end
$timescale
	1ps
$end

$scope module control_vlg_vec_tst $end
$var reg 1 ! clk_25k $end
$var reg 1 " rst $end
$var wire 1 # start $end
$var wire 1 $ str $end

$scope module i1 $end
$var wire 1 % gnd $end
$var wire 1 & vcc $end
$var wire 1 ' unknown $end
$var tri1 1 ( devclrn $end
$var tri1 1 ) devpor $end
$var tri1 1 * devoe $end
$var wire 1 + ~QUARTUS_CREATED_GND~I_combout $end
$var wire 1 , clk_25k~input_o $end
$var wire 1 - clk_25k~inputCLKENA0_outclk $end
$var wire 1 . rst~input_o $end
$var wire 1 / count~0_combout $end
$var wire 1 0 count~1_combout $end
$var wire 1 1 count~2_combout $end
$var wire 1 2 count~3_combout $end
$var wire 1 3 WideOr0~combout $end
$var wire 1 4 start~reg0_q $end
$var wire 1 5 WideAnd0~combout $end
$var wire 1 6 str~reg0_q $end
$var wire 1 7 count [3] $end
$var wire 1 8 count [2] $end
$var wire 1 9 count [1] $end
$var wire 1 : count [0] $end
$upscope $end
$upscope $end
$enddefinitions $end
#0
$dumpvars
0!
0"
0#
0$
0%
1&
x'
1(
1)
1*
0+
0,
0-
0.
1/
00
01
02
13
04
05
06
0:
09
08
07
$end
#5000
1!
1,
1-
1:
14
1#
03
10
0/
#10000
0!
0,
0-
#15000
1!
1,
1-
19
0:
04
0#
1/
#20000
0!
0,
0-
#25000
1!
1,
1-
1:
11
00
0/
#30000
0!
0,
0-
#35000
1!
1,
1-
18
09
0:
1/
#40000
0!
0,
0-
#45000
1!
1,
1-
1:
10
0/
#50000
0!
0,
0-
#55000
1!
1,
1-
19
0:
1/
#60000
0!
0,
0-
#65000
1!
1,
1-
1:
12
01
00
0/
#70000
0!
0,
0-
#75000
1!
1,
1-
17
08
09
0:
1/
#80000
0!
0,
0-
#85000
1!
1,
1-
1:
10
0/
#90000
0!
0,
0-
#95000
1!
1,
1-
19
0:
1/
#100000
0!
0,
0-
#105000
1!
1,
1-
1:
11
00
0/
#110000
0!
0,
0-
#115000
1!
1,
1-
18
09
0:
1/
#120000
0!
0,
0-
#125000
1!
1,
1-
1:
10
0/
#130000
0!
0,
0-
#135000
1!
1,
1-
19
0:
1/
#140000
0!
0,
0-
#145000
1!
1,
1-
1:
15
02
01
00
0/
#150000
0!
0,
0-
#155000
1!
1,
1-
07
08
09
0:
16
1$
05
13
1/
#160000
0!
0,
0-
#165000
1!
1,
1-
1:
06
14
1#
0$
03
10
0/
#170000
0!
0,
0-
#175000
1!
1,
1-
19
0:
04
0#
1/
#180000
0!
0,
0-
#185000
1!
1,
1-
1:
11
00
0/
#190000
0!
0,
0-
#195000
1!
1,
1-
18
09
0:
1/
#200000
0!
0,
0-
#205000
1!
1,
1-
1:
10
0/
#210000
0!
0,
0-
#215000
1!
1,
1-
19
0:
1/
#220000
0!
0,
0-
#225000
1!
1,
1-
1:
12
01
00
0/
#230000
0!
0,
0-
#235000
1!
1,
1-
17
08
09
0:
1/
#240000
0!
0,
0-
#245000
1!
1,
1-
1:
10
0/
#250000
0!
0,
0-
#255000
1!
1,
1-
19
0:
1/
#260000
0!
0,
0-
#265000
1!
1,
1-
1:
11
00
0/
#270000
0!
0,
0-
#275000
1!
1,
1-
18
09
0:
1/
#280000
0!
0,
0-
#285000
1!
1,
1-
1:
10
0/
#290000
0!
0,
0-
#295000
1!
1,
1-
19
0:
1/
#300000
0!
0,
0-
#305000
1!
1,
1-
1:
15
02
01
00
0/
#310000
0!
0,
0-
#315000
1!
1,
1-
07
08
09
0:
16
1$
05
13
1/
#320000
0!
0,
0-
#325000
1!
1,
1-
1:
06
14
1#
0$
03
10
0/
#330000
0!
0,
0-
#335000
1!
1,
1-
19
0:
04
0#
1/
#340000
0!
0,
0-
#345000
1!
1,
1-
1:
11
00
0/
#350000
0!
0,
0-
#355000
1!
1,
1-
18
09
0:
1/
#360000
0!
0,
0-
#365000
1!
1,
1-
1:
10
0/
#370000
0!
0,
0-
#375000
1!
1,
1-
19
0:
1/
#380000
0!
0,
0-
#385000
1!
1,
1-
1:
12
01
00
0/
#390000
0!
0,
0-
#395000
1!
1,
1-
17
08
09
0:
1/
#400000
0!
0,
0-
#405000
1!
1,
1-
1:
10
0/
#410000
0!
0,
0-
#415000
1!
1,
1-
19
0:
1/
#420000
0!
0,
0-
#425000
1!
1,
1-
1:
11
00
0/
#430000
0!
0,
0-
#435000
1!
1,
1-
18
09
0:
1/
#440000
0!
0,
0-
#445000
1!
1,
1-
1:
10
0/
#450000
0!
0,
0-
#455000
1!
1,
1-
19
0:
1/
#460000
0!
0,
0-
#465000
1!
1,
1-
1:
15
02
01
00
0/
#470000
0!
0,
0-
#475000
1!
1,
1-
07
08
09
0:
16
1$
05
13
1/
#480000
0!
0,
0-
#485000
1!
1,
1-
1:
06
14
1#
0$
03
10
0/
#490000
0!
0,
0-
#495000
1!
1,
1-
19
0:
04
0#
1/
#500000
0!
0,
0-
#505000
1!
1,
1-
1:
11
00
0/
#510000
0!
0,
0-
#515000
1!
1,
1-
18
09
0:
1/
#520000
1"
0!
1.
0,
0-
01
#525000
1!
1,
1-
08
1:
